<svg xmlns="http://www.w3.org/2000/svg" width="34" height="34" viewBox="0 0 34 34">
  <g fill="none" fill-rule="evenodd">
    <circle cx="17" cy="17" r="16.5" fill="#FFF" stroke="#000"/>
    <path fill="#000" fill-rule="nonzero" d="M5.74024615,14.7749615 C12.5837923,14.7749615 16.3257538,9.10415385 16.3257538,4.18945385 C16.3257538,4.02743077 16.3257538,3.86540769 16.3180385,3.7111 C17.0432846,3.18645385 17.6759462,2.53064615 18.1774462,1.78225385 C17.5139231,2.07543846 16.7963923,2.27603846 16.0402846,2.36862308 C16.8118231,1.9057 17.3981923,1.18045385 17.6759462,0.308615385 C16.9584154,0.732961538 16.1637308,1.04157692 15.3150385,1.21131538 C14.6360846,0.486069231 13.6716615,0.0385769231 12.5992231,0.0385769231 C10.5469308,0.0385769231 8.88040769,1.7051 8.88040769,3.75739231 C8.88040769,4.05057692 8.91126923,4.33604615 8.98070769,4.60608462 C5.88683846,4.45177692 3.14787692,2.97042308 1.31161538,0.717530769 C0.995284615,1.26532308 0.810115385,1.9057 0.810115385,2.58465385 C0.810115385,3.87312308 1.46592308,5.015 2.46892308,5.67852308 C1.85940769,5.66309231 1.28846923,5.49335385 0.786969231,5.2156 C0.786969231,5.23103077 0.786969231,5.24646154 0.786969231,5.26189231 C0.786969231,7.06729231 2.06772308,8.56407692 3.77282308,8.91126923 C3.46420769,8.99613846 3.13244615,9.04243077 2.79296923,9.04243077 C2.55379231,9.04243077 2.32233077,9.01928462 2.09086923,8.97299231 C2.56150769,10.4543462 3.93484615,11.5267846 5.56279231,11.5576462 C4.28975385,12.5529308 2.68495385,13.1470154 0.941276923,13.1470154 C0.640376923,13.1470154 0.347192308,13.1315846 0.0540076923,13.0930077 C1.68195385,14.1577308 3.64166154,14.7749615 5.74024615,14.7749615" transform="translate(8.436 10.365)"/>
  </g>
</svg>
