<?xml version="1.0" encoding="UTF-8"?>
<svg width="300px" height="160px" viewBox="0 0 300 160" version="1.1" xmlns="http://www.w3.org/2000/svg" xmlns:xlink="http://www.w3.org/1999/xlink">
    <title>diagonals-red-D</title>
    <defs>
        <rect id="path-1" x="0" y="0" width="300" height="160"></rect>
    </defs>
    <g id="design" stroke="none" stroke-width="1" fill="none" fill-rule="evenodd">
        <g id="03-Monte-BYS-LP-Desktop-About_v2" transform="translate(-829.000000, -1873.000000)">
            <g id="diagonals-red-D" transform="translate(979.000000, 1953.000000) scale(-1, -1) translate(-979.000000, -1953.000000) translate(829.000000, 1873.000000)">
                <mask id="mask-2" fill="white">
                    <use xlink:href="#path-1"></use>
                </mask>
                <use id="Mask" fill-opacity="0" fill="#D8D8D8" xlink:href="#path-1"></use>
                <polygon id="Rectangle-11" fill="#FF3B7D" mask="url(#mask-2)" points="0 0 20 0 0 20"></polygon>
                <polygon id="Rectangle-12" fill="#FF3B7D" mask="url(#mask-2)" points="40 0 60 0 -160 220 -180 220"></polygon>
                <polygon id="Rectangle-12-Copy" fill="#FF3B7D" mask="url(#mask-2)" points="80 0 100 0 -120 220 -140 220"></polygon>
                <polygon id="Rectangle-12-Copy-2" fill="#FF3B7D" mask="url(#mask-2)" points="120 0 140 0 -80 220 -100 220"></polygon>
                <polygon id="Rectangle-12-Copy-3" fill="#FF3B7D" mask="url(#mask-2)" points="160 0 180 0 -40 220 -60 220"></polygon>
                <polygon id="Rectangle-12-Copy-4" fill="#FF3B7D" mask="url(#mask-2)" points="200 0 220 0 0 220 -20 220"></polygon>
                <polygon id="Rectangle-12-Copy-5" fill="#FF3B7D" mask="url(#mask-2)" points="240 0 260 0 40 220 20 220"></polygon>
                <polygon id="Rectangle-12-Copy-6" fill="#FF3B7D" mask="url(#mask-2)" points="280 0 300 0 80 220 60 220"></polygon>
                <polygon id="Rectangle-12-Copy-7" fill="#FF3B7D" mask="url(#mask-2)" points="320 0 340 0 120 220 100 220"></polygon>
                <polygon id="Rectangle-12-Copy-8" fill="#FF3B7D" mask="url(#mask-2)" points="360 0 380 0 160 220 140 220"></polygon>
                <polygon id="Rectangle-12-Copy-9" fill="#FF3B7D" mask="url(#mask-2)" points="400 0 420 0 200 220 180 220"></polygon>
                <polygon id="Rectangle-12-Copy-10" fill="#FF3B7D" mask="url(#mask-2)" points="440 0 460 0 240 220 220 220"></polygon>
            </g>
        </g>
    </g>
</svg>